…
``` r
Advertising<-Advertising[,-1]
Advertising # Because the data was read using read_csv(), advertising is a tibble.
```

    ## # A tibble: 200 x 4
    ##       TV radio newspaper sales
    ##    <dbl> <dbl>     <dbl> <dbl>
    ##  1 230.   37.8      69.2  22.1
    ##  2  44.5  39.3      45.1  10.4
    ##  3  17.2  45.9      69.3   9.3
    ##  4 152.   41.3      58.5  18.5
    ##  5 181.   10.8      58.4  12.9
    ##  6   8.7  48.9      75     7.2
    ##  7  57.5  32.8      23.5  11.8
    ##  8 120.   19.6      11.6  13.2
    ##  9   8.6   2.1       1     4.8
    ## 10 200.    2.6      21.2  10.6
    ## # ... with 190 more rows
…
